{
    "control.inp": {
        "Spectral segment info": [
            [2, 310.0, 390.0, 0.05]
        ],
        "Include land fluorescence": [
            "file", "cinp_fluor.dat", 1.0],
        "Extra-terrestrial solar flux": "File",
        "Filename user provided solar spectrum": "cinp_solspec.dat",
        "Wavelength grid from file": [
            true, "cinp_wlaxis.dat", 1],
        "Collision-induced absorption": "NONE",
        "Path to CIA data base": "cia",
        "Surface reflection type": "alb_spec",
        "Path to the albedo database": "albedo",
        "Spectral albedo filename": "spectral_albedo.dat",
        "Replacement for water": [false, "albedo_rg_water.dat"],
        "Altitude grid file name": "cinp_netgrid.dat",
        "Standard profile scenario file name": "cinp_prof_std.dat",
        "Standard profile scenario for line absorbers": "cinp_prof_line_std.dat",
        "Path to climatology data base": "clim"
    },
    "control_ac.inp": {
        "Integration nodes": [
            true, "cac_intnodes.txt"]
    },
    "control_aer.inp": {
        "Path to Aerosol data base": "aer"
    },
    "control_ray.inp": {
        "King factor": "from file",
        "Rayleigh depolarisation filename": "cray_king.dat"
    },
    "control_rrs.inp": {
        "Use spin-rotational splitting": [
            true, "crrs_o2et.dat", "crrs_o2pt.dat"
        ]
    },
    "control_wf.inp": {
	      "Weighting functions for Stokes component": [
	          true, false, false, false],
	      "Weighting functions: trace gases": [
	          "NO2"],
	      "Weighting functions: aerosol parameters": [
	          "none"],
	      "Weighting functions: other atmospheric parameters": [
	          "none"],
	      "Weighting functions: cloud parameters": [
	          "none"],
	      "Ocean parameters - weighting functions\nChlorophyll  Rayleigh  Pm-Us  Pm-Ks  Pm-Kl": [
	          false, false, false, false, false],
	      "WF normalization": "standard",
	      "Numerical perturbation with respect to": "scattering",
	      "Numerical perturbation of water/ice": "water",
	      "Lower and upper boundary for WF calculation": [
	          0.0, 100.0]
    },
    "control_prof.inp": {
        "Do P and T from standard profile file": false,
        "Pressure and temperature file name": [
            "cprof_ptprof.dat", 1, 4, 5],
        "Use CIRA model": [
            false, "~/DATA_BASES/CLIMATOLOGY/CIRA-86/", 45.0], 
        "Trace gas replacement profiles": [
            ["cprof_o3prof.dat", "O3", "conc", 1, 6],
            ["cprof_no2prof.dat", "NO2", "conc", 1, 10]
        ],
        "BrO climatology": true,
        "BrO climatology file": "cprof_broclim.dat",
        "Ozone climatology": "NONE",
        "Path to ozone climatology": "o3clim"
    },
    "xsections.inp": {
        "X-section path": "xs/",
        "X-section: o3 UV-NIR": [["xs_o3.dat", 180]]
    },
    "man_aer.inp": {
        "Aerosol scattering function representation": "Asymmetry_factor",
        "File names containing expansion coefficients": "none",
        "File names containing scattering function/matrix": "none",
        "Source for aerosol extinction coefficients": ["maer_extc1.dat", "maer_extc2.dat"],
        "Directory name for scattering matrices": "../data/aerosol/"
    }
}
