{   "base_directory" : "/home/hilboll/prj/2017_cindi-2_spectra",
    "sciatran_md5": "905001e775f16807e4d8b40c378d3f3f",

    "control.inp": {
        "Screen output": "S, S, S",
        "Home directory": "undefined",
        "RTM Mode": "raman",
        "RTM_TYPE": "spher_scat",
        "RTM-CORE": "DOM_S",
        "Stokes vector of incident beam": [
            1.0, 0.0, 0.0, 0.0],
        "Include radiative transfer within ocean or ice": "none",
        "Include land fluorescence": [
            "off", "../data/flu_land/fluor.dat", 1.0],
        "Extra-terrestrial solar flux": "File",
        "Filename user provided solar spectrum": "data/spectra/SAO2010-vac.dat",
        "Dimension of extra-terrestrial solar flux": [
            "nm", "vac", "phot/s", "cm^2", "nm"],
        "Parallel wavelength loop": false,
        "Spectral segment info": [
            [2, 310.0, 390.0, 0.05]
        ],
        "Wavelength grid from file": [
            true, "data/spectra/wlaxis.dat", 1],
        "Forward model: trace gases": [
            "O3", "BRO", "HCHO", "NO2", "OCLO", "O4"],
        "Trace gas selection - AMF calculation": "NO2",
        "Line absorber treatment": "off",
        "Collision-induced absorption": "NONE",
        "Mixing ratios for CIA species": [
            "O2", "file"],
        "Account for N2-air collisions": false,
        "Path to CIA data base": "~/DATA_BASES/HITRAN_2012/",
        "Do convolution": false,
        "Thermal emission": false,
        "Advanced Rayleigh settings": true,
        "Aerosol settings": "off",
        "Clouds present?": false,
        "Surface reflection type": "alb_const",
        "Albedo": 0.05,
        "Spectral albedo filename": "",
        "Weights of albedo components": [
            0.8, 1.0],
        "Convert ratio to albedo": [
            5, 1, 4],
        "Replacement for water": [
            false, "albedo_rg_water.dat"],
        "Path to the albedo database": "../../DATA_BASES/ALBEDO/",
        "Altitude grid file name": "data/NET151_100m-10km_1km-60km.dat",
        "Height above sea level": 0.0,
        "Standard profile scenario file name": "data/profiles/uss76.dat",
        "Standard profile scenario for line absorbers": "data/profiles/uss76.dat",
        "Advanced profile settings": true,
        "Date\n'DMY'": "dd.mm.yyyy",
        "Latitude & longitude": [
            51.971, 4.927],
        "Photochemical calculations": false,
        "Advanced accuracy control": true,
        "Output format specification": false,
        "Do specification by geolocation": false,
        "Stop after generating control_climatology.inp": false,
        "Do profile latitude interpolation": false,
        "Path to climatology data base": "../DATA_BASES/CLIMATOLOGY/",
        "Perform IPRT comparison": [
            false, false]
    },
    "control_ac.inp": {
        "Scattering mode": "ms",
        "SS/MS wavelength boundary": 305.0,
        "The number of fine grid layers": 2,
        "Accuracy of STA": 0.1,
        "Check STA": false,
        "Fine grid start": 1,
        "Fine grid tangent": 5,
        "Fine grid height": 4.0,
        "Solar fine grid height": 4.0,
        "The layering of line-of-sight": [
            2, 2, 1.0],
        "Use constant angles along line-of-sight": false,
        "Solar grid": ["UD", 12],
        "Adaptive grid": false,
        "Homogeneity criterion": 0.25,
        "Azimuth series flag": true,
        "Do only 0th harmonic for near nadir": true,
        "Near nadir definition [deg]": 0.01,
        "Accuracy criterion": 0.001,
        "Number of streams": 16,
        "Number of Legendre moments": 35,
        "Post-processing type": "Int_SF",
        "Single scattering correction": false,
        "Analytic for conservative scattering": [
            false, 0.0001],
        "Precision mode for eigenvalue problem": "sngl",
        "Integration over L-of-S in Fourier space?": "yes",
        "Pre-calculate line-of-sight geometry": false,
        "The number of iterations": 1,
        "Only one solar zenith angle": false,
        "Integration nodes": [
            false, "/home/scia/patty/SCIATRAN/data/nodes/nodes25.txt"],
        "High resolution calculations for the refraction": false
    },
    "control_aer.inp": {
        "Path to Aerosol data base": "",
        "Aerosol parameterization type": "mn",
        "Top of aerosol layers": "from local surface",
        "Add level at boudary layer top": false,
        "Use Henyey-Greenstein parameterization of scattering function?": "yes",
        "Aerosol scaling parameter": 1.0,
        "Aerosol scaling factor": [false, 1.0,  0.8, 0.0, 2.0],
        "Use reference extinction coefficient profile": [false, 550.0, "~/SCIATRAN/Execute-3.7/ext_coeff_prof.tes"],
        "Aerosol OT at reference wavelength": [false, 0.4, 550.0],
        "Additional aerosol OT": [0, 0.1, 0.2, 0.3, 0.4, 0.5, 0.6, 0.7, 0.8, 0.9, 1.0],
        "Use ECSTRA model": [false, 0.002],
        "Path to the tropopause height database": "~/DATA_BASES/NCEP_TP",
        "Replace aerosol extinction": [false, ""],
        "Aerosol scattering matrix output": [false, [1, 1, 90, "E"], "./DATA_OUT/Phase_matr_non-sph.out"],
        "Output of aerosol OT": [0]
    },
    "control_geom.inp": {
        "Position of the instrument": "boa",
        "Number of user-defined output altitudes": 1,
        "User-defined output altitude": 0.0,
        "Viewing direction": "up",
        "Refractive geometry": [
            true, 355.0, "HLS=35.0", "HSB=35.0", "ALS=70.0", "ASB=70.0"
        ],
        "Angle selection mode": "one",
        "Solar zenith angles": [
        ],
        "Type of LOS definition": "va",
        "Viewing angles": [
        ],
        "Azimuth angles": [
        ],
        "Earth radius": 6365.0,
        "Field of view integration": true,
        "Field of view size": 1.0,
        "FOV integration parameters": [
            "GS", 5, 1.99 ,3
        ],
        "Lines of sight number for FOV integration": 5,
        "Shape of FOV function": 1
    },
    "control_ray.inp": {
        "Rayleigh scattering scaling": [
            false, 1E-40],
        "Rayleigh optical thickness": [
            false, 0.5],
        "Wavelength grid for Rayleigh scattering output": [
                355.0],
        "Rayleigh scattering index": 4,
        "Percent volume concentration": [
            78.084, 20.946, 0.934, 0.036],
        "Lorentz-Lorenz factor": "a",
        "Refractive index": "Edlen66",
        "King factor": "from file",
        "Rayleigh depolarisation value": 0.0295,
        "Rayleigh depolarisation filename": "data/spectra/bates_depol_raman_interp.dat"
    },
    "control_rrs.inp": {
        "Numerical technique used for VRS": "dom",
        "Integrate with FRF": [
            true, 2.0, 0.2],
        "Total Raman scattering coefficients": [
            false, 0.00264, 0.00143],
        "Depolarization ratio": 0.17,
        "Add TRS to extinction": [
            false, true],
        "Basic spectroscopic parameters": [
            "TRS", 0.00027, 488.0, "Inverse_power_law", 130.0],
        "Exclude solar light": false,
        "Numerical technique used for fluorescence": "dom",
        "Quantum efficiency function": [
            "FA7", "HA6"],
        "Integration step over excitation range": 1.0,
        "Quantum efficiency": 0.01,
        "Gaussian emission band parameters": [
            685.0, 10.6],
        "Numerical technique used for RRS": "adj",
        "Ring spectrum for Stokes component": [
            true, true, true, false],
        "Maximum rotational number": 25,
        "Use spin-rotational splitting": [
            true, "data/spectra/rrs/O2_ET-HITRAN-2012.dat", "data/spectra/rrs/O2_PT-HITRAN-2012.dat"
        ],
        "Ring spectra output mode": "log",
        "Approach to calculate contribution of Raman lines": "simple binning",
        "Raman binning step": 0.01,
        "Tradeoff speed/memory": "memory",
        "Test with single model Fraunhofer line": false
    },
    "control_wf.inp": {
	      "Weighting functions for Stokes component": [
	          true, false, false, false],
	      "Weighting functions: trace gases": [
	          "NO2"],
	      "Weighting functions: aerosol parameters": [
	          "none"],
	      "Weighting functions: other atmospheric parameters": [
	          "none"],
	      "Weighting functions: cloud parameters": [
	          "none"],
	      "Ocean parameters - weighting functions\nChlorophyll  Rayleigh  Pm-Us  Pm-Ks  Pm-Kl": [
	          false, false, false, false, false],
	      "WF normalization": "standard",
	      "Numerical perturbation with respect to": "scattering",
	      "Numerical perturbation of water/ice": "water",
	      "Lower and upper boundary for WF calculation": [
	          0.0, 100.0]
    },
    "control_prof.inp": {
        "Do profiles akima interpolation": true,
        "Do P and T from standard profile file": false,
        "Pressure and temperature file name": [
            "data/profiles/profiles_hono-scd.dat", 1, 4, 5],
        "Use CIRA model": [
            false, "~/DATA_BASES/CLIMATOLOGY/CIRA-86/", 45.0], 
        "Trace gas replacement profiles": [
            ["data/profiles/profiles_o3.dat", "O3", "conc", 1, 6],
            ["data/profiles/profiles_o3.dat", "NO2", "conc", 1, 10],
            ["data/profiles/profiles_o3.dat", "HCHO", "conc", 1, 11],
            ["data/profiles/profiles_o3.dat", "BRO", "conc", 1, 12],
            ["data/profiles/profiles_o3.dat", "OCLO", "conc", 1, 13]
        ],
        "Pressure profile scaling": [
            false, 900.0],
        "Ozone profile scaling": [
            false, 300.0],
        "Water vapor profile scaling": [
            false, 2.0],
        "Parameters for Na": [
            5.0E9, 92.0, 4.5],
        "Parameters for Mga": [
            2.5E9, 92.0, 4.5],
        "Parameters for Mgi": [
            5.0E9, 96.0, 4.5],
        "BrO climatology": false,
        "BrO climatology file": "../../DATA_BASES/CLIMATOLOGY/BRO/bro_mipas_v2.dat",
        "Ozone climatology": "NONE",
        "Scale climatological profile": false,
        "Ozone total column": 252.0,
        "Path to ozone climatology": "../../DATA_BASES/CLIMATOLOGY/OZONE"
    },
    "xsections.inp": {
        "X-section path": "data/spectra/",
        "Do x-sections akima interpolation": true,
        "Do O3 UV GOME FM": false,
        "X-section: o3_uv, Bass": [
            "O3_serdyuch_poly2_coeff.dat", 245.1, 280.0],
        "X-section: o3_uv, GOME FM": [
            "n_gometemp.vac", 235.1, 269.9],
        "X-section: o3 UV-NIR": [
            ["o3_serdyuchenko_t-param_vac4air_180K.dat", 180],
            ["o3_serdyuchenko_t-param_vac4air_185K.dat", 185],
            ["o3_serdyuchenko_t-param_vac4air_190K.dat", 190],
            ["o3_serdyuchenko_t-param_vac4air_195K.dat", 195],
            ["o3_serdyuchenko_t-param_vac4air_200K.dat", 200],
            ["o3_serdyuchenko_t-param_vac4air_205K.dat", 205],
            ["o3_serdyuchenko_t-param_vac4air_210K.dat", 210],
            ["o3_serdyuchenko_t-param_vac4air_215K.dat", 215],
            ["o3_serdyuchenko_t-param_vac4air_220K.dat", 220],
            ["o3_serdyuchenko_t-param_vac4air_225K.dat", 225],
            ["o3_serdyuchenko_t-param_vac4air_230K.dat", 230],
            ["o3_serdyuchenko_t-param_vac4air_235K.dat", 235],
            ["o3_serdyuchenko_t-param_vac4air_240K.dat", 240],
            ["o3_serdyuchenko_t-param_vac4air_245K.dat", 245],
            ["o3_serdyuchenko_t-param_vac4air_250K.dat", 250],
            ["o3_serdyuchenko_t-param_vac4air_255K.dat", 255],
            ["o3_serdyuchenko_t-param_vac4air_260K.dat", 260],
            ["o3_serdyuchenko_t-param_vac4air_265K.dat", 265],
            ["o3_serdyuchenko_t-param_vac4air_270K.dat", 270],
            ["o3_serdyuchenko_t-param_vac4air_275K.dat", 275],
            ["o3_serdyuchenko_t-param_vac4air_280K.dat", 280],
            ["o3_serdyuchenko_t-param_vac4air_285K.dat", 285],
            ["o3_serdyuchenko_t-param_vac4air_290K.dat", 290],
            ["o3_serdyuchenko_t-param_vac4air_295K.dat", 295],
            ["o3_serdyuchenko_t-param_vac4air_300K.dat", 300],
            ["o3_serdyuchenko_t-param_vac4air_305K.dat", 305],
            ["o3_serdyuchenko_t-param_vac4air_310K.dat", 310],
            ["o3_serdyuchenko_t-param_vac4air_315K.dat", 315],
            ["o3_serdyuchenko_t-param_vac4air_320K.dat", 320]
        ],
        "X-section: bro": [
            ["bro_fleischmann_vac4air_223K.dat", 223]
        ],
        "X-section: hcho": [
            ["hcho_meller-moortgat_vac4air_298K.dat", 298]
        ],
        "X-section: no2": [
            ["no2_vandaele_vac4air_220K.dat", 220],
            ["no2_vandaele_vac4air_294K.dat", 294]
        ],
        "X-section: o4": [
            ["o4_thalman-volkamer_vac4air_293K.dat", 293]
        ],
        "X-section: oclo": [
            ["hono_stutz_vac4air_298K.dat", 298]
        ]
    },
    "control_out.inp": {
        "Fluxes for path representation": "no",
        "Intensity or Stokes vector output format": "default",
        "Intensity representation in output file": "default",
        "Output format for multiple wavelengths": "wl_in_colm",
        "Output of ellipsometric parameters": "no",
        "Output of following Stokes components": [
            1, 1],
        "Output of surface albedo": "no",
        "Put AOT into output file": false,
        "Transform to reflection function?": false,
        "Write local optical parameters": false
    },
    "man_aer.inp": {
        "Directory name for scattering matrices": "../data/aerosol/",
        "Use Angstrom parameterization": false,
        "Wavelength grid (aerosol parameters)":  [299.8, 500.0],
        "Aerosol scattering function representation": "Asymmetry_factor",
        "Layering of scattering function/matrix": 5.0,
        "Asymmetry factor values": [0.68, 0.68],
        "File names containing expansion coefficients": "none",
        "File names containing scattering function/matrix": "none",
        "Source for aerosol extinction coefficients": "list",
        "Aerosol as a cloud layer?": "yes",
        "Extinction coefficient": [
        ],
        "Single scattering albedo": [
            [0.0, 0.92, 0.92],
            [10.0, 0.92, 0.92]
        ]
    }
}
